﻿{
  "Descriptor": {
    "UId": "e97a79f9-b8d7-46f8-8223-3c9faa2e440d",
    "Name": "System.IdentityModel.dll",
    "FullName": "System.IdentityModel, Version=4.0.0.0, Culture=neutral, PublicKeyToken=b77a5c561934e089",
    "ModifiedOnUtc": "\/Date(1557680582000)\/"
  }
}