﻿{
  "Descriptor": {
    "UId": "cb2f05ad-47bf-455f-9327-b03c74951335",
    "Name": "SibWebServiceUsers",
    "ModifiedOnUtc": "\/Date(1536065448000)\/",
    "Parent": {
      "UId": "11ab4bcb-9b23-4b6d-9c86-520fae925d75",
      "Name": "BaseLookup"
    },
    "ManagerName": "EntitySchemaManager",
    "Caption": "Пользователи веб-сервиса",
    "DependsOn": []
  }
}