﻿{
  "MetaData": {
    "Schema": {
      "ManagerName": "SourceCodeSchemaManager",
      "UId": "63f8172c-532c-4a3c-b77b-e5a48507f14e",
      "A2": "SibIntegrationCommon",
      "A5": "3c4a3b73-269c-4fd8-987c-289b10699f10",
      "B1": [],
      "B2": [],
      "B3": [],
      "B6": "6fb1bb9d-43d3-447e-9894-5ca60f7f1266",
      "B8": "7.12.0.2702",
      "HD1": "50e3acc0-26fc-4237-a095-849a1d534bd3"
    }
  }
}