﻿{
  "MetaData": {
    "Schema": {
      "ManagerName": "SourceCodeSchemaManager",
      "UId": "3a23a815-0ff5-4ab9-8b0f-6f4e08a033fb",
      "A2": "SibWSExecutorBase",
      "A5": "993d1f3a-2716-4adf-a5d0-d56979c709b0",
      "B1": [],
      "B2": [],
      "B3": [],
      "B6": "6fb1bb9d-43d3-447e-9894-5ca60f7f1266",
      "B8": "7.12.0.2702",
      "HD1": "50e3acc0-26fc-4237-a095-849a1d534bd3"
    }
  }
}