﻿{
  "Descriptor": {
    "UId": "f04f95e8-ce3c-4a36-847a-60723f224e81",
    "Name": "SibIntegrationLogSearchRecordModalBoxCss",
    "ModifiedOnUtc": "\/Date(1535435135000)\/",
    "ManagerName": "ClientUnitSchemaManager",
    "Caption": "SibIntegrationLogSearchRecordModalBoxCss"
  }
}